module github.com/ines-cruz/json_exporter

go 1.14

require (
	cloud.google.com/go v0.74.0 // indirect
	cloud.google.com/go/bigquery v1.12.0
	cloud.google.com/go/pubsub v1.9.1 // indirect
	github.com/cpuguy83/go-md2man/v2 v2.0.0 // indirect
	github.com/go-kit/kit v0.9.0
	github.com/joho/godotenv v1.3.0 // indirect
	github.com/kawamuray/jsonpath v0.0.0-20160208140654-5c448ebf9735
	github.com/prometheus/client_golang v1.7.1
	github.com/prometheus/common v0.10.0
	github.com/sirupsen/logrus v1.6.0 // indirect
	golang.org/x/net v0.0.0-20201224014010-6772e930b67b // indirect
	golang.org/x/oauth2 v0.0.0-20201208152858-08078c50e5b5
	golang.org/x/sys v0.0.0-20210105210732-16f7687f5001 // indirect
	golang.org/x/tools v0.0.0-20210106214847-113979e3529a // indirect
	google.golang.org/api v0.36.0
	google.golang.org/genproto v0.0.0-20210106152847-07624b53cd92 // indirect
	gopkg.in/alecthomas/kingpin.v2 v2.2.6 // indirect
	gopkg.in/yaml.v2 v2.3.0
)
